2023-12-04 16:48:30.125 [info] Log level: Info
2023-12-04 16:48:30.125 [info] Validating found git in: "git"
2023-12-04 16:48:30.125 [info] Using git "2.42.0" from "git"
2023-12-04 16:58:43.136 [info] Log level: Info
2023-12-04 16:58:43.155 [info] Validating found git in: "git"
2023-12-04 16:58:43.155 [info] Using git "2.42.0" from "git"
