2023-12-04 17:02:31.200 [info] Reading sessions from keychain...
2023-12-04 17:02:31.200 [info] Getting sessions for all scopes...
2023-12-04 17:02:31.200 [info] Getting sessions for user:email...
2023-12-04 17:02:31.200 [info] Got stored sessions!
2023-12-04 17:02:31.200 [info] Got 1 verified sessions.
2023-12-04 17:02:31.200 [info] Got 1 sessions for ...
2023-12-04 17:02:31.200 [info] Got 1 sessions for user:email...
2023-12-04 17:02:31.200 [info] Getting sessions for all scopes...
2023-12-04 17:02:31.200 [info] Got 1 sessions for ...
2023-12-04 17:02:33.886 [info] Getting sessions for all scopes...
2023-12-04 17:02:33.887 [info] Got 1 sessions for ...
2023-12-04 17:03:03.063 [info] Reading sessions from keychain...
2023-12-04 17:03:03.064 [info] Getting sessions for all scopes...
2023-12-04 17:03:03.066 [info] Getting sessions for user:email...
2023-12-04 17:03:03.297 [info] Got stored sessions!
2023-12-04 17:03:03.297 [info] Got 1 verified sessions.
2023-12-04 17:03:03.297 [info] Got 1 sessions for ...
2023-12-04 17:03:03.298 [info] Got 1 sessions for user:email...
2023-12-04 17:03:03.403 [info] Getting sessions for all scopes...
2023-12-04 17:03:03.403 [info] Got 1 sessions for ...
2023-12-04 17:14:28.148 [info] Reading sessions from keychain...
2023-12-04 17:14:28.163 [info] Getting sessions for all scopes...
2023-12-04 17:14:28.163 [info] Getting sessions for user:email...
2023-12-04 17:14:28.163 [info] Got stored sessions!
2023-12-04 17:14:28.163 [info] Got 1 verified sessions.
2023-12-04 17:14:28.163 [info] Got 1 sessions for ...
2023-12-04 17:14:28.163 [info] Got 1 sessions for user:email...
2023-12-04 17:14:28.163 [info] Getting sessions for all scopes...
2023-12-04 17:14:28.163 [info] Got 1 sessions for ...
2023-12-04 17:15:28.530 [info] Getting sessions for read:user,repo,user:email,workflow...
2023-12-04 17:15:28.530 [info] Got 0 sessions for read:user,repo,user:email,workflow...
2023-12-04 17:15:32.505 [info] Logging in for the following scopes: read:user repo user:email workflow
2023-12-04 17:15:32.522 [info] Trying without local server... (read:user repo user:email workflow)
2023-12-04 17:17:46.132 [error] User Cancelled
2023-12-04 17:18:22.786 [info] Getting sessions for read:user,repo,user:email,workflow...
2023-12-04 17:18:22.786 [info] Got 0 sessions for read:user,repo,user:email,workflow...
2023-12-04 17:18:25.375 [info] Logging in for the following scopes: read:user repo user:email workflow
2023-12-04 17:18:25.388 [info] Trying without local server... (read:user repo user:email workflow)
2023-12-04 17:18:54.488 [info] Exchanging code for token...
2023-12-04 17:18:54.687 [info] Token exchange success!
2023-12-04 17:18:54.692 [info] Getting user info...
2023-12-04 17:18:54.960 [info] Got account info!
2023-12-04 17:18:54.962 [info] Storing 2 sessions...
2023-12-04 17:18:54.970 [info] Reading sessions from keychain...
2023-12-04 17:18:54.971 [info] Stored 2 sessions!
2023-12-04 17:18:54.971 [info] Login success!
2023-12-04 17:18:54.979 [info] Getting sessions for user:email...
2023-12-04 17:18:54.981 [info] Got stored sessions!
2023-12-04 17:18:54.981 [info] Got 2 verified sessions.
2023-12-04 17:18:54.981 [info] Got 1 sessions for user:email...
2023-12-04 17:19:49.544 [info] Reading sessions from keychain...
2023-12-04 17:19:49.544 [info] Getting sessions for all scopes...
2023-12-04 17:19:49.544 [info] Getting sessions for user:email...
2023-12-04 17:19:49.572 [info] Got stored sessions!
2023-12-04 17:19:49.573 [info] Got 2 verified sessions.
2023-12-04 17:19:49.573 [info] Got 2 sessions for ...
2023-12-04 17:19:49.574 [info] Got 1 sessions for user:email...
2023-12-04 17:19:49.783 [info] Getting sessions for all scopes...
2023-12-04 17:19:49.784 [info] Got 2 sessions for ...
2023-12-04 17:19:51.294 [info] Getting sessions for read:user,repo,user:email,workflow...
2023-12-04 17:19:51.294 [info] Got 1 sessions for read:user,repo,user:email,workflow...
2023-12-04 17:49:42.965 [info] Reading sessions from keychain...
2023-12-04 17:49:42.966 [info] Getting sessions for all scopes...
2023-12-04 17:49:42.966 [info] Getting sessions for all scopes...
2023-12-04 17:49:42.966 [info] Got stored sessions!
2023-12-04 17:49:42.966 [info] Got 2 verified sessions.
2023-12-04 17:49:42.966 [info] Got 2 sessions for ...
2023-12-04 17:49:42.966 [info] Got 2 sessions for ...
2023-12-04 17:49:42.966 [info] Getting sessions for user:email...
2023-12-04 17:49:42.966 [info] Got 1 sessions for user:email...
2023-12-04 17:50:57.219 [info] Reading sessions from keychain...
2023-12-04 17:50:57.219 [info] Getting sessions for all scopes...
2023-12-04 17:50:57.229 [info] Got stored sessions!
2023-12-04 17:50:57.229 [info] Got 2 verified sessions.
2023-12-04 17:50:57.229 [info] Got 2 sessions for ...
2023-12-04 17:50:57.316 [info] Getting sessions for user:email...
2023-12-04 17:50:57.317 [info] Got 1 sessions for user:email...
2023-12-04 17:50:57.684 [info] Getting sessions for all scopes...
2023-12-04 17:50:57.684 [info] Got 2 sessions for ...
2023-12-04 17:51:31.943 [info] Reading sessions from keychain...
2023-12-04 17:51:31.951 [info] Getting sessions for all scopes...
2023-12-04 17:51:31.951 [info] Getting sessions for user:email...
2023-12-04 17:51:31.963 [info] Got stored sessions!
2023-12-04 17:51:31.964 [info] Got 2 verified sessions.
2023-12-04 17:51:31.964 [info] Got 2 sessions for ...
2023-12-04 17:51:31.964 [info] Got 1 sessions for user:email...
2023-12-04 17:51:31.986 [info] Getting sessions for all scopes...
2023-12-04 17:51:31.986 [info] Got 2 sessions for ...
2023-12-04 17:51:45.509 [info] Reading sessions from keychain...
2023-12-04 17:51:45.510 [info] Getting sessions for all scopes...
2023-12-04 17:51:45.510 [info] Getting sessions for user:email...
2023-12-04 17:51:45.560 [info] Got stored sessions!
2023-12-04 17:51:45.561 [info] Got 2 verified sessions.
2023-12-04 17:51:45.561 [info] Got 2 sessions for ...
2023-12-04 17:51:45.561 [info] Got 1 sessions for user:email...
2023-12-04 17:51:45.563 [info] Getting sessions for read:user,repo,user:email,workflow...
2023-12-04 17:51:45.563 [info] Got 1 sessions for read:user,repo,user:email,workflow...
2023-12-04 17:51:45.679 [info] Getting sessions for all scopes...
2023-12-04 17:51:45.679 [info] Got 2 sessions for ...
2023-12-04 17:52:10.861 [info] Reading sessions from keychain...
2023-12-04 17:52:10.861 [info] Getting sessions for all scopes...
2023-12-04 17:52:10.866 [info] Getting sessions for user:email...
2023-12-04 17:52:10.872 [info] Got stored sessions!
2023-12-04 17:52:10.872 [info] Got 2 verified sessions.
2023-12-04 17:52:10.873 [info] Got 2 sessions for ...
2023-12-04 17:52:10.873 [info] Got 1 sessions for user:email...
2023-12-04 17:52:10.900 [info] Getting sessions for all scopes...
2023-12-04 17:52:10.900 [info] Got 2 sessions for ...
2023-12-04 17:54:01.145 [info] Reading sessions from keychain...
2023-12-04 17:54:01.145 [info] Getting sessions for all scopes...
2023-12-04 17:54:01.145 [info] Getting sessions for user:email...
2023-12-04 17:54:01.145 [info] Getting sessions for all scopes...
2023-12-04 17:54:01.145 [info] Got stored sessions!
2023-12-04 17:54:01.145 [info] Got 2 verified sessions.
2023-12-04 17:54:01.145 [info] Got 2 sessions for ...
2023-12-04 17:54:01.145 [info] Got 1 sessions for user:email...
2023-12-04 17:54:01.145 [info] Got 2 sessions for ...
2023-12-04 17:54:01.145 [info] Getting sessions for all scopes...
2023-12-04 17:54:01.145 [info] Got 2 sessions for ...
2023-12-04 17:54:02.168 [info] Getting sessions for read:user,repo,user:email,workflow...
2023-12-04 17:54:02.168 [info] Got 1 sessions for read:user,repo,user:email,workflow...
