2023-12-04 17:02:30.125 [info] Below are logs for extension telemetry events sent to the telemetry output channel API once the log level is set to trace.
2023-12-04 17:02:30.125 [info] ===========================================================
2023-12-04 17:03:01.629 [info] Below are logs for extension telemetry events sent to the telemetry output channel API once the log level is set to trace.
2023-12-04 17:03:01.629 [info] ===========================================================
2023-12-04 17:14:26.148 [info] Below are logs for extension telemetry events sent to the telemetry output channel API once the log level is set to trace.
2023-12-04 17:14:26.171 [info] ===========================================================
2023-12-04 17:19:49.268 [info] Below are logs for extension telemetry events sent to the telemetry output channel API once the log level is set to trace.
2023-12-04 17:19:49.291 [info] ===========================================================
2023-12-04 17:49:42.678 [info] Below are logs for extension telemetry events sent to the telemetry output channel API once the log level is set to trace.
2023-12-04 17:49:42.696 [info] ===========================================================
2023-12-04 17:50:56.956 [info] Below are logs for extension telemetry events sent to the telemetry output channel API once the log level is set to trace.
2023-12-04 17:50:56.956 [info] ===========================================================
2023-12-04 17:51:27.883 [info] Below are logs for extension telemetry events sent to the telemetry output channel API once the log level is set to trace.
2023-12-04 17:51:27.883 [info] ===========================================================
2023-12-04 17:51:44.006 [info] Below are logs for extension telemetry events sent to the telemetry output channel API once the log level is set to trace.
2023-12-04 17:51:44.006 [info] ===========================================================
2023-12-04 17:52:06.074 [info] Below are logs for extension telemetry events sent to the telemetry output channel API once the log level is set to trace.
2023-12-04 17:52:06.074 [info] ===========================================================
2023-12-04 17:53:59.851 [info] Below are logs for extension telemetry events sent to the telemetry output channel API once the log level is set to trace.
2023-12-04 17:53:59.851 [info] ===========================================================
2023-12-04 17:54:00.056 [info] Below are logs for extension telemetry events sent to the telemetry output channel API once the log level is set to trace.
2023-12-04 17:54:00.056 [info] ===========================================================
