{
	"dark": [
		"#222222",
		"#222222"
	],
	"grey": [
		"#545353",
		"#545353"
	],
	"light": [
		"#ffffff",
		"#ffffff"
	],
	"text": [
		"#292d3e",
		"#292d3e"
	],
	"focus": [
		"#872f62",
		"#872f62"
	],
	"urgent": [
		"#ff5555",
		"#ff5555"
	],
	"active": [
		"#f1ffff",
		"#f1ffff"
	],
	"inactive": [
		"#4c566a",
		"#4c566a"
	],
	"color1": [
		"#ff5555",
		"#ff5555"
	],
	"color2": [
		"#653b80",
		"#653b80"
	],
	"color3": [
		"#233b6e",
		"#233b6e"
	],
	"color4": [
		"#ba6829",
		"#ba6829"
	]

}
